<svg width="62" height="60" viewBox="0 0 62 60" fill="none" xmlns="http://www.w3.org/2000/svg">
<rect width="62" height="60" fill="#222121"/>
<path d="M42.625 0H19.375C8.67613 0 0 8.39625 0 18.75V41.25C0 51.6037 8.67613 60 19.375 60H42.625C53.3239 60 62 51.6037 62 41.25V18.75C62 8.39625 53.3239 0 42.625 0ZM56.1875 41.25C56.1875 48.4875 50.1037 54.375 42.625 54.375H19.375C11.8962 54.375 5.8125 48.4875 5.8125 41.25V18.75C5.8125 11.5125 11.8962 5.625 19.375 5.625H42.625C50.1037 5.625 56.1875 11.5125 56.1875 18.75V41.25Z" fill="white"/>
<path d="M31 15C22.4401 15 15.5 21.7162 15.5 30C15.5 38.2838 22.4401 45 31 45C39.5599 45 46.5 38.2838 46.5 30C46.5 21.7162 39.5599 15 31 15ZM31 39.375C25.6602 39.375 21.3125 35.1675 21.3125 30C21.3125 24.8288 25.6602 20.625 31 20.625C36.3398 20.625 40.6875 24.8288 40.6875 30C40.6875 35.1675 36.3398 39.375 31 39.375Z" fill="white"/>
<path d="M47.6625 15.8737C48.8032 15.8737 49.7279 14.9788 49.7279 13.875C49.7279 12.7711 48.8032 11.8762 47.6625 11.8762C46.5218 11.8762 45.5971 12.7711 45.5971 13.875C45.5971 14.9788 46.5218 15.8737 47.6625 15.8737Z" fill="white"/>
</svg>
